{
    "0": "<p> Statistics on a per tour basis.</p>",
    "1": "",
    "2": "<p> Average daily percentage of language use of a tour. </p><hr/><ul style='list-style-type: circle'><li>Hover over for daily average users.</li></ul>"
}